%!PS-Adobe-3.0 EPSF-3.0
%%Title: latex/wavevel_dispersionrel.eps
%%Creator: matplotlib version 2.0.2, http://matplotlib.org/
%%CreationDate: Thu Aug 17 00:05:39 2017
%%Orientation: portrait
%%BoundingBox: -126 252 738 540
%%EndComments
%%BeginProlog
/mpldict 10 dict def
mpldict begin
/m { moveto } bind def
/l { lineto } bind def
/r { rlineto } bind def
/c { curveto } bind def
/cl { closepath } bind def
/box {
m
1 index 0 r
0 exch r
neg 0 r
cl
} bind def
/clipbox {
box
clip
newpath
} bind def
%!PS-Adobe-3.0 Resource-Font
%%Title: DejaVu Sans
%%Copyright: Copyright (c) 2003 by Bitstream, Inc. All Rights Reserved. Copyright (c) 2006 by Tavmjong Bah. All Rights Reserved. DejaVu changes are in public domain 
%%Creator: Converted from TrueType to type 3 by PPR
25 dict begin
/_d{bind def}bind def
/_m{moveto}_d
/_l{lineto}_d
/_cl{closepath eofill}_d
/_c{curveto}_d
/_sc{7 -1 roll{setcachedevice}{pop pop pop pop pop pop}ifelse}_d
/_e{exec}_d
/FontName /DejaVuSans def
/PaintType 0 def
/FontMatrix[.001 0 0 .001 0 0]def
/FontBBox[-1021 -463 1793 1232]def
/FontType 3 def
/Encoding [ /space /comma /period /slash /zero /one /two /three /four /five /equal /D /E /F /L /M /P /Q /R /V /W /Y /a /b /c /d /e /f /i /l /m /n /o /p /q /r /s /t /u /v /w /y /minus ] def
/FontInfo 10 dict dup begin
/FamilyName (DejaVu Sans) def
/FullName (DejaVu Sans) def
/Notice (Copyright (c) 2003 by Bitstream, Inc. All Rights Reserved. Copyright (c) 2006 by Tavmjong Bah. All Rights Reserved. DejaVu changes are in public domain ) def
/Weight (Book) def
/Version (Version 2.35) def
/ItalicAngle 0.0 def
/isFixedPitch false def
/UnderlinePosition -130 def
/UnderlineThickness 90 def
end readonly def
/CharStrings 43 dict dup begin
/space{318 0 0 0 0 0 _sc
}_d
/comma{318 0 77 -115 220 124 _sc
117 124 _m
220 124 _l
220 40 _l
140 -115 _l
77 -115 _l
117 40 _l
117 124 _l
_cl}_d
/period{318 0 107 0 210 124 _sc
107 124 _m
210 124 _l
210 0 _l
107 0 _l
107 124 _l
_cl}_d
/slash{337 0 0 -92 337 729 _sc
254 729 _m
337 729 _l
83 -92 _l
0 -92 _l
254 729 _l
_cl}_d
/zero{636 0 66 -13 570 742 _sc
318 664 _m
267 664 229 639 203 589 _c
177 539 165 464 165 364 _c
165 264 177 189 203 139 _c
229 89 267 64 318 64 _c
369 64 407 89 433 139 _c
458 189 471 264 471 364 _c
471 464 458 539 433 589 _c
407 639 369 664 318 664 _c
318 742 _m
399 742 461 709 505 645 _c
548 580 570 486 570 364 _c
570 241 548 147 505 83 _c
461 19 399 -13 318 -13 _c
236 -13 173 19 130 83 _c
87 147 66 241 66 364 _c
66 486 87 580 130 645 _c
173 709 236 742 318 742 _c
_cl}_d
/one{636 0 110 0 544 729 _sc
124 83 _m
285 83 _l
285 639 _l
110 604 _l
110 694 _l
284 729 _l
383 729 _l
383 83 _l
544 83 _l
544 0 _l
124 0 _l
124 83 _l
_cl}_d
/two{{636 0 73 0 536 742 _sc
192 83 _m
536 83 _l
536 0 _l
73 0 _l
73 83 _l
110 121 161 173 226 239 _c
290 304 331 346 348 365 _c
380 400 402 430 414 455 _c
426 479 433 504 433 528 _c
433 566 419 598 392 622 _c
365 646 330 659 286 659 _c
255 659 222 653 188 643 _c
154 632 117 616 78 594 _c
78 694 _l
118 710 155 722 189 730 _c
223 738 255 742 284 742 _c
}_e{359 742 419 723 464 685 _c
509 647 532 597 532 534 _c
532 504 526 475 515 449 _c
504 422 484 390 454 354 _c
446 344 420 317 376 272 _c
332 227 271 164 192 83 _c
_cl}_e}_d
/three{{636 0 76 -13 556 742 _sc
406 393 _m
453 383 490 362 516 330 _c
542 298 556 258 556 212 _c
556 140 531 84 482 45 _c
432 6 362 -13 271 -13 _c
240 -13 208 -10 176 -4 _c
144 1 110 10 76 22 _c
76 117 _l
103 101 133 89 166 81 _c
198 73 232 69 268 69 _c
330 69 377 81 409 105 _c
441 129 458 165 458 212 _c
458 254 443 288 413 312 _c
383 336 341 349 287 349 _c
}_e{202 349 _l
202 430 _l
291 430 _l
339 430 376 439 402 459 _c
428 478 441 506 441 543 _c
441 580 427 609 401 629 _c
374 649 336 659 287 659 _c
260 659 231 656 200 650 _c
169 644 135 635 98 623 _c
98 711 _l
135 721 170 729 203 734 _c
235 739 266 742 296 742 _c
370 742 429 725 473 691 _c
517 657 539 611 539 553 _c
539 513 527 479 504 451 _c
481 423 448 403 406 393 _c
_cl}_e}_d
/four{636 0 49 0 580 729 _sc
378 643 _m
129 254 _l
378 254 _l
378 643 _l
352 729 _m
476 729 _l
476 254 _l
580 254 _l
580 172 _l
476 172 _l
476 0 _l
378 0 _l
378 172 _l
49 172 _l
49 267 _l
352 729 _l
_cl}_d
/five{{636 0 77 -13 549 729 _sc
108 729 _m
495 729 _l
495 646 _l
198 646 _l
198 467 _l
212 472 227 476 241 478 _c
255 480 270 482 284 482 _c
365 482 429 459 477 415 _c
525 370 549 310 549 234 _c
549 155 524 94 475 51 _c
426 8 357 -13 269 -13 _c
238 -13 207 -10 175 -6 _c
143 -1 111 6 77 17 _c
77 116 _l
106 100 136 88 168 80 _c
199 72 232 69 267 69 _c
}_e{323 69 368 83 401 113 _c
433 143 450 183 450 234 _c
450 284 433 324 401 354 _c
368 384 323 399 267 399 _c
241 399 214 396 188 390 _c
162 384 135 375 108 363 _c
108 729 _l
_cl}_e}_d
/equal{838 0 106 172 732 454 _sc
106 454 _m
732 454 _l
732 372 _l
106 372 _l
106 454 _l
106 255 _m
732 255 _l
732 172 _l
106 172 _l
106 255 _l
_cl}_d
/D{770 0 98 0 711 729 _sc
197 648 _m
197 81 _l
316 81 _l
416 81 490 103 537 149 _c
583 195 607 267 607 365 _c
607 463 583 534 537 580 _c
490 625 416 648 316 648 _c
197 648 _l
98 729 _m
301 729 _l
442 729 546 699 612 641 _c
678 582 711 490 711 365 _c
711 239 677 147 611 88 _c
545 29 441 0 301 0 _c
98 0 _l
98 729 _l
_cl}_d
/E{632 0 98 0 568 729 _sc
98 729 _m
559 729 _l
559 646 _l
197 646 _l
197 430 _l
544 430 _l
544 347 _l
197 347 _l
197 83 _l
568 83 _l
568 0 _l
98 0 _l
98 729 _l
_cl}_d
/F{575 0 98 0 517 729 _sc
98 729 _m
517 729 _l
517 646 _l
197 646 _l
197 431 _l
486 431 _l
486 348 _l
197 348 _l
197 0 _l
98 0 _l
98 729 _l
_cl}_d
/L{557 0 98 0 552 729 _sc
98 729 _m
197 729 _l
197 83 _l
552 83 _l
552 0 _l
98 0 _l
98 729 _l
_cl}_d
/M{863 0 98 0 765 729 _sc
98 729 _m
245 729 _l
431 233 _l
618 729 _l
765 729 _l
765 0 _l
669 0 _l
669 640 _l
481 140 _l
382 140 _l
194 640 _l
194 0 _l
98 0 _l
98 729 _l
_cl}_d
/P{603 0 98 0 569 729 _sc
197 648 _m
197 374 _l
321 374 _l
367 374 402 385 427 409 _c
452 433 465 467 465 511 _c
465 555 452 588 427 612 _c
402 636 367 648 321 648 _c
197 648 _l
98 729 _m
321 729 _l
402 729 464 710 506 673 _c
548 636 569 582 569 511 _c
569 439 548 384 506 348 _c
464 311 402 293 321 293 _c
197 293 _l
197 0 _l
98 0 _l
98 729 _l
_cl}_d
/Q{{787 0 56 -128 731 742 _sc
394 662 _m
322 662 265 635 223 582 _c
181 528 160 456 160 364 _c
160 272 181 199 223 146 _c
265 92 322 66 394 66 _c
465 66 522 92 564 146 _c
606 199 627 272 627 364 _c
627 456 606 528 564 582 _c
522 635 465 662 394 662 _c
532 13 _m
662 -128 _l
543 -128 _l
435 -11 _l
424 -11 416 -12 410 -12 _c
404 -12 399 -13 394 -13 _c
291 -13 209 21 148 89 _c
}_e{86 157 56 248 56 364 _c
56 479 86 571 148 639 _c
209 707 291 742 394 742 _c
496 742 577 707 639 639 _c
700 571 731 479 731 364 _c
731 279 714 206 680 146 _c
646 86 596 41 532 13 _c
_cl}_e}_d
/R{{695 0 98 0 666 729 _sc
444 342 _m
465 334 486 319 506 296 _c
526 272 546 240 566 199 _c
666 0 _l
560 0 _l
467 187 _l
443 235 419 268 397 284 _c
374 300 343 308 304 308 _c
197 308 _l
197 0 _l
98 0 _l
98 729 _l
321 729 _l
404 729 466 711 507 677 _c
548 642 569 589 569 519 _c
569 473 558 434 537 404 _c
515 374 484 353 444 342 _c
197 648 _m
197 389 _l
321 389 _l
}_e{368 389 404 400 428 422 _c
452 444 465 476 465 519 _c
465 561 452 593 428 615 _c
404 637 368 648 321 648 _c
197 648 _l
_cl}_e}_d
/V{684 0 8 0 676 729 _sc
286 0 _m
8 729 _l
111 729 _l
342 115 _l
573 729 _l
676 729 _l
398 0 _l
286 0 _l
_cl}_d
/W{989 0 33 0 956 729 _sc
33 729 _m
133 729 _l
286 113 _l
439 729 _l
550 729 _l
703 113 _l
856 729 _l
956 729 _l
773 0 _l
649 0 _l
495 633 _l
340 0 _l
216 0 _l
33 729 _l
_cl}_d
/Y{611 0 -1 0 613 729 _sc
-1 729 _m
104 729 _l
306 429 _l
507 729 _l
613 729 _l
355 347 _l
355 0 _l
256 0 _l
256 347 _l
-1 729 _l
_cl}_d
/a{{613 0 60 -13 522 560 _sc
343 275 _m
270 275 220 266 192 250 _c
164 233 150 205 150 165 _c
150 133 160 107 181 89 _c
202 70 231 61 267 61 _c
317 61 357 78 387 114 _c
417 149 432 196 432 255 _c
432 275 _l
343 275 _l
522 312 _m
522 0 _l
432 0 _l
432 83 _l
411 49 385 25 355 10 _c
325 -5 287 -13 243 -13 _c
187 -13 142 2 109 33 _c
76 64 60 106 60 159 _c
}_e{60 220 80 266 122 298 _c
163 329 224 345 306 345 _c
432 345 _l
432 354 _l
432 395 418 427 391 450 _c
364 472 326 484 277 484 _c
245 484 215 480 185 472 _c
155 464 127 453 100 439 _c
100 522 _l
132 534 164 544 195 550 _c
226 556 256 560 286 560 _c
365 560 424 539 463 498 _c
502 457 522 395 522 312 _c
_cl}_e}_d
/b{{635 0 91 -13 580 760 _sc
487 273 _m
487 339 473 390 446 428 _c
418 466 381 485 334 485 _c
286 485 249 466 222 428 _c
194 390 181 339 181 273 _c
181 207 194 155 222 117 _c
249 79 286 61 334 61 _c
381 61 418 79 446 117 _c
473 155 487 207 487 273 _c
181 464 _m
199 496 223 520 252 536 _c
281 552 316 560 356 560 _c
422 560 476 533 518 481 _c
559 428 580 359 580 273 _c
}_e{580 187 559 117 518 65 _c
476 13 422 -13 356 -13 _c
316 -13 281 -5 252 10 _c
223 25 199 49 181 82 _c
181 0 _l
91 0 _l
91 760 _l
181 760 _l
181 464 _l
_cl}_e}_d
/c{{550 0 55 -13 488 560 _sc
488 526 _m
488 442 _l
462 456 437 466 411 473 _c
385 480 360 484 334 484 _c
276 484 230 465 198 428 _c
166 391 150 339 150 273 _c
150 206 166 154 198 117 _c
230 80 276 62 334 62 _c
360 62 385 65 411 72 _c
437 79 462 90 488 104 _c
488 21 _l
462 9 436 0 410 -5 _c
383 -10 354 -13 324 -13 _c
242 -13 176 12 128 64 _c
}_e{79 115 55 185 55 273 _c
55 362 79 432 128 483 _c
177 534 244 560 330 560 _c
358 560 385 557 411 551 _c
437 545 463 537 488 526 _c
_cl}_e}_d
/d{{635 0 55 -13 544 760 _sc
454 464 _m
454 760 _l
544 760 _l
544 0 _l
454 0 _l
454 82 _l
435 49 411 25 382 10 _c
353 -5 319 -13 279 -13 _c
213 -13 159 13 117 65 _c
75 117 55 187 55 273 _c
55 359 75 428 117 481 _c
159 533 213 560 279 560 _c
319 560 353 552 382 536 _c
411 520 435 496 454 464 _c
148 273 _m
148 207 161 155 188 117 _c
215 79 253 61 301 61 _c
}_e{348 61 385 79 413 117 _c
440 155 454 207 454 273 _c
454 339 440 390 413 428 _c
385 466 348 485 301 485 _c
253 485 215 466 188 428 _c
161 390 148 339 148 273 _c
_cl}_e}_d
/e{{615 0 55 -13 562 560 _sc
562 296 _m
562 252 _l
149 252 _l
153 190 171 142 205 110 _c
238 78 284 62 344 62 _c
378 62 412 66 444 74 _c
476 82 509 95 541 113 _c
541 28 _l
509 14 476 3 442 -3 _c
408 -9 373 -13 339 -13 _c
251 -13 182 12 131 62 _c
80 112 55 181 55 268 _c
55 357 79 428 127 481 _c
175 533 241 560 323 560 _c
397 560 455 536 498 489 _c
}_e{540 441 562 377 562 296 _c
472 322 _m
471 371 457 410 431 440 _c
404 469 368 484 324 484 _c
274 484 234 469 204 441 _c
174 413 156 373 152 322 _c
472 322 _l
_cl}_e}_d
/f{352 0 23 0 371 760 _sc
371 760 _m
371 685 _l
285 685 _l
253 685 230 678 218 665 _c
205 652 199 629 199 595 _c
199 547 _l
347 547 _l
347 477 _l
199 477 _l
199 0 _l
109 0 _l
109 477 _l
23 477 _l
23 547 _l
109 547 _l
109 585 _l
109 645 123 690 151 718 _c
179 746 224 760 286 760 _c
371 760 _l
_cl}_d
/i{278 0 94 0 184 760 _sc
94 547 _m
184 547 _l
184 0 _l
94 0 _l
94 547 _l
94 760 _m
184 760 _l
184 646 _l
94 646 _l
94 760 _l
_cl}_d
/l{278 0 94 0 184 760 _sc
94 760 _m
184 760 _l
184 0 _l
94 0 _l
94 760 _l
_cl}_d
/m{{974 0 91 0 889 560 _sc
520 442 _m
542 482 569 511 600 531 _c
631 550 668 560 711 560 _c
767 560 811 540 842 500 _c
873 460 889 403 889 330 _c
889 0 _l
799 0 _l
799 327 _l
799 379 789 418 771 444 _c
752 469 724 482 686 482 _c
639 482 602 466 575 435 _c
548 404 535 362 535 309 _c
535 0 _l
445 0 _l
445 327 _l
445 379 435 418 417 444 _c
398 469 369 482 331 482 _c
}_e{285 482 248 466 221 435 _c
194 404 181 362 181 309 _c
181 0 _l
91 0 _l
91 547 _l
181 547 _l
181 462 _l
201 495 226 520 255 536 _c
283 552 317 560 357 560 _c
397 560 430 550 458 530 _c
486 510 506 480 520 442 _c
_cl}_e}_d
/n{634 0 91 0 549 560 _sc
549 330 _m
549 0 _l
459 0 _l
459 327 _l
459 379 448 417 428 443 _c
408 469 378 482 338 482 _c
289 482 251 466 223 435 _c
195 404 181 362 181 309 _c
181 0 _l
91 0 _l
91 547 _l
181 547 _l
181 462 _l
202 494 227 519 257 535 _c
286 551 320 560 358 560 _c
420 560 468 540 500 501 _c
532 462 549 405 549 330 _c
_cl}_d
/o{612 0 55 -13 557 560 _sc
306 484 _m
258 484 220 465 192 427 _c
164 389 150 338 150 273 _c
150 207 163 156 191 118 _c
219 80 257 62 306 62 _c
354 62 392 80 420 118 _c
448 156 462 207 462 273 _c
462 337 448 389 420 427 _c
392 465 354 484 306 484 _c
306 560 _m
384 560 445 534 490 484 _c
534 433 557 363 557 273 _c
557 183 534 113 490 63 _c
445 12 384 -13 306 -13 _c
227 -13 165 12 121 63 _c
77 113 55 183 55 273 _c
55 363 77 433 121 484 _c
165 534 227 560 306 560 _c
_cl}_d
/p{{635 0 91 -207 580 560 _sc
181 82 _m
181 -207 _l
91 -207 _l
91 547 _l
181 547 _l
181 464 _l
199 496 223 520 252 536 _c
281 552 316 560 356 560 _c
422 560 476 533 518 481 _c
559 428 580 359 580 273 _c
580 187 559 117 518 65 _c
476 13 422 -13 356 -13 _c
316 -13 281 -5 252 10 _c
223 25 199 49 181 82 _c
487 273 _m
487 339 473 390 446 428 _c
418 466 381 485 334 485 _c
}_e{286 485 249 466 222 428 _c
194 390 181 339 181 273 _c
181 207 194 155 222 117 _c
249 79 286 61 334 61 _c
381 61 418 79 446 117 _c
473 155 487 207 487 273 _c
_cl}_e}_d
/q{{635 0 55 -207 544 560 _sc
148 273 _m
148 207 161 155 188 117 _c
215 79 253 61 301 61 _c
348 61 385 79 413 117 _c
440 155 454 207 454 273 _c
454 339 440 390 413 428 _c
385 466 348 485 301 485 _c
253 485 215 466 188 428 _c
161 390 148 339 148 273 _c
454 82 _m
435 49 411 25 382 10 _c
353 -5 319 -13 279 -13 _c
213 -13 159 13 117 65 _c
75 117 55 187 55 273 _c
}_e{55 359 75 428 117 481 _c
159 533 213 560 279 560 _c
319 560 353 552 382 536 _c
411 520 435 496 454 464 _c
454 547 _l
544 547 _l
544 -207 _l
454 -207 _l
454 82 _l
_cl}_e}_d
/r{411 0 91 0 411 560 _sc
411 463 _m
401 469 390 473 378 476 _c
366 478 353 480 339 480 _c
288 480 249 463 222 430 _c
194 397 181 350 181 288 _c
181 0 _l
91 0 _l
91 547 _l
181 547 _l
181 462 _l
199 495 224 520 254 536 _c
284 552 321 560 365 560 _c
371 560 378 559 386 559 _c
393 558 401 557 411 555 _c
411 463 _l
_cl}_d
/s{{521 0 54 -13 472 560 _sc
443 531 _m
443 446 _l
417 458 391 468 364 475 _c
336 481 308 485 279 485 _c
234 485 200 478 178 464 _c
156 450 145 430 145 403 _c
145 382 153 366 169 354 _c
185 342 217 330 265 320 _c
296 313 _l
360 299 405 279 432 255 _c
458 230 472 195 472 151 _c
472 100 452 60 412 31 _c
372 1 316 -13 246 -13 _c
216 -13 186 -10 154 -5 _c
}_e{122 0 89 8 54 20 _c
54 113 _l
87 95 120 82 152 74 _c
184 65 216 61 248 61 _c
290 61 323 68 346 82 _c
368 96 380 117 380 144 _c
380 168 371 187 355 200 _c
339 213 303 226 247 238 _c
216 245 _l
160 257 119 275 95 299 _c
70 323 58 356 58 399 _c
58 450 76 490 112 518 _c
148 546 200 560 268 560 _c
301 560 332 557 362 552 _c
391 547 418 540 443 531 _c
}_e{_cl}_e}_d
/t{392 0 27 0 368 702 _sc
183 702 _m
183 547 _l
368 547 _l
368 477 _l
183 477 _l
183 180 _l
183 135 189 106 201 94 _c
213 81 238 75 276 75 _c
368 75 _l
368 0 _l
276 0 _l
206 0 158 13 132 39 _c
106 65 93 112 93 180 _c
93 477 _l
27 477 _l
27 547 _l
93 547 _l
93 702 _l
183 702 _l
_cl}_d
/u{634 0 85 -13 543 560 _sc
85 216 _m
85 547 _l
175 547 _l
175 219 _l
175 167 185 129 205 103 _c
225 77 255 64 296 64 _c
344 64 383 79 411 110 _c
439 141 453 183 453 237 _c
453 547 _l
543 547 _l
543 0 _l
453 0 _l
453 84 _l
431 50 405 26 377 10 _c
348 -5 315 -13 277 -13 _c
214 -13 166 6 134 45 _c
101 83 85 140 85 216 _c
311 560 _m
311 560 _l
_cl}_d
/v{592 0 30 0 562 547 _sc
30 547 _m
125 547 _l
296 88 _l
467 547 _l
562 547 _l
357 0 _l
235 0 _l
30 547 _l
_cl}_d
/w{818 0 42 0 776 547 _sc
42 547 _m
132 547 _l
244 120 _l
356 547 _l
462 547 _l
574 120 _l
686 547 _l
776 547 _l
633 0 _l
527 0 _l
409 448 _l
291 0 _l
185 0 _l
42 547 _l
_cl}_d
/y{592 0 30 -207 562 547 _sc
322 -50 _m
296 -114 271 -157 247 -177 _c
223 -197 191 -207 151 -207 _c
79 -207 _l
79 -132 _l
132 -132 _l
156 -132 175 -126 189 -114 _c
203 -102 218 -75 235 -31 _c
251 9 _l
30 547 _l
125 547 _l
296 119 _l
467 547 _l
562 547 _l
322 -50 _l
_cl}_d
/minus{838 0 106 272 732 355 _sc
106 355 _m
732 355 _l
732 272 _l
106 272 _l
106 355 _l
_cl}_d
end readonly def

/BuildGlyph
 {exch begin
 CharStrings exch
 2 copy known not{pop /.notdef}if
 true 3 1 roll get exec
 end}_d

/BuildChar {
 1 index /Encoding get exch get
 1 index /BuildGlyph get exec
}_d

FontName currentdict end definefont pop
%!PS-Adobe-3.0 Resource-Font
%%Title: DejaVu Sans Oblique
%%Copyright: Copyright (c) 2003 by Bitstream, Inc. All Rights Reserved. Copyright (c) 2006 by Tavmjong Bah. All Rights Reserved. DejaVu changes are in public domain 
%%Creator: Converted from TrueType to type 3 by PPR
25 dict begin
/_d{bind def}bind def
/_m{moveto}_d
/_l{lineto}_d
/_cl{closepath eofill}_d
/_c{curveto}_d
/_sc{7 -1 roll{setcachedevice}{pop pop pop pop pop pop}ifelse}_d
/_e{exec}_d
/FontName /DejaVuSans-Oblique def
/PaintType 0 def
/FontMatrix[.001 0 0 .001 0 0]def
/FontBBox[-1016 -350 1659 1068]def
/FontType 3 def
/Encoding [ /c /k /beta /omega ] def
/FontInfo 10 dict dup begin
/FamilyName (DejaVu Sans) def
/FullName (DejaVu Sans Oblique) def
/Notice (Copyright (c) 2003 by Bitstream, Inc. All Rights Reserved. Copyright (c) 2006 by Tavmjong Bah. All Rights Reserved. DejaVu changes are in public domain ) def
/Weight (Oblique) def
/Version (Version 2.35) def
/ItalicAngle -11.0 def
/isFixedPitch false def
/UnderlinePosition -130 def
/UnderlineThickness 90 def
end readonly def
/CharStrings 4 dict dup begin
/c{{550 0 46 -13 536 560 _sc
536 526 _m
518 437 _l
496 452 473 464 449 472 _c
425 480 400 484 374 484 _c
345 484 318 479 292 469 _c
266 459 244 444 227 426 _c
199 397 177 364 162 326 _c
146 288 139 248 139 208 _c
139 158 151 122 176 98 _c
200 74 238 62 288 62 _c
312 62 339 65 367 73 _c
395 80 424 91 454 107 _c
437 18 _l
411 7 384 0 356 -5 _c
}_e{328 -10 300 -13 272 -13 _c
199 -13 143 5 104 41 _c
65 77 46 128 46 196 _c
46 252 56 304 76 352 _c
96 400 127 443 167 481 _c
194 507 226 526 263 540 _c
299 553 340 560 384 560 _c
409 560 434 557 459 551 _c
484 545 510 537 536 526 _c
_cl}_e}_d
/k{579 0 35 0 612 760 _sc
183 760 _m
273 760 _l
187 317 _l
495 547 _l
612 547 _l
268 285 _l
519 0 _l
410 0 _l
177 267 _l
125 0 _l
35 0 _l
183 760 _l
_cl}_d
/beta{{638 0 0 -207 572 766 _sc
136 34 _m
89 -207 _l
0 -207 _l
145 543 _l
173 691 257 766 396 766 _c
536 766 595 703 572 578 _c
555 488 515 428 452 396 _c
537 366 571 308 555 221 _c
525 67 432 -9 275 -9 _c
205 -9 159 5 136 34 _c
159 151 _m
184 94 229 66 293 66 _c
387 66 443 117 463 220 _c
481 311 414 353 262 347 _c
278 430 _l
396 428 465 480 485 586 _c
}_e{499 657 468 693 392 693 _c
306 693 254 642 235 541 _c
159 151 _l
_cl}_e}_d
/omega{{837 0 68 -13 771 547 _sc
214 -13 _m
78 -13 30 83 68 276 _c
82 352 125 443 196 547 _c
293 547 _l
225 443 184 351 170 273 _c
142 132 164 62 237 62 _c
304 62 354 149 387 325 _c
470 325 _l
434 149 450 61 518 62 _c
590 62 640 133 668 273 _c
682 351 677 443 651 547 _c
748 547 _l
778 443 785 352 771 276 _c
733 82 647 -13 512 -13 _c
423 -13 383 35 391 132 _c
}_e{359 35 300 -13 214 -13 _c
_cl}_e}_d
end readonly def

/BuildGlyph
 {exch begin
 CharStrings exch
 2 copy known not{pop /.notdef}if
 true 3 1 roll get exec
 end}_d

/BuildChar {
 1 index /Encoding get exch get
 1 index /BuildGlyph get exec
}_d

FontName currentdict end definefont pop
%!PS-Adobe-3.0 Resource-Font
%%Title: STIXSizeOneSym-Regular
%%Copyright: Copyright (c) 2001-2010 by the STI Pub Companies, consisting of the American Chemical Society, the American Institute of Physics, the American Mathematical Society, the American Physical Society, Elsevier, Inc., and The Institute of Electrical and Electronic Engineers, Inc. Portions copyright (c) 1998-2003 by MicroPress, Inc. Portions copyright (c) 1990 by Elsevier, Inc. All rights reserved.
%%Creator: Converted from TrueType to type 3 by PPR
25 dict begin
/_d{bind def}bind def
/_m{moveto}_d
/_l{lineto}_d
/_cl{closepath eofill}_d
/_c{curveto}_d
/_sc{7 -1 roll{setcachedevice}{pop pop pop pop pop pop}ifelse}_d
/_e{exec}_d
/FontName /STIXSizeOneSym-Regular def
/PaintType 0 def
/FontMatrix[.001 0 0 .001 0 0]def
/FontBBox[-1000 -363 1503 1566]def
/FontType 3 def
/Encoding [ /uni221A ] def
/FontInfo 10 dict dup begin
/FamilyName (STIXSizeOneSym) def
/FullName (STIXSizeOneSym-Regular) def
/Notice (Copyright (c) 2001-2010 by the STI Pub Companies, consisting of the American Chemical Society, the American Institute of Physics, the American Mathematical Society, the American Physical Society, Elsevier, Inc., and The Institute of Electrical and Electronic Engineers, Inc. Portions copyright (c) 1998-2003 by MicroPress, Inc. Portions copyright (c) 1990 by Elsevier, Inc. All rights reserved. STIX Fonts(TM) is a trademark of The Institute of Electrical and Electronics Engineers, Inc.) def
/Weight (Regular) def
/Version (Version 1.0.0) def
/ItalicAngle 0.0 def
/isFixedPitch false def
/UnderlinePosition -123 def
/UnderlineThickness 20 def
end readonly def
/CharStrings 1 dict dup begin
/uni221A{1057 0 112 -294 1089 1552 _sc
1089 1552 _m
527 -294 _l
485 -294 _l
254 456 _l
246 480 238 497 229 508 _c
219 518 207 524 192 524 _c
169 524 146 515 124 497 _c
112 517 _l
276 643 _l
301 643 _l
528 -93 _l
532 -93 _l
1032 1552 _l
1089 1552 _l
_cl}_d
end readonly def

/BuildGlyph
 {exch begin
 CharStrings exch
 2 copy known not{pop /.notdef}if
 true 3 1 roll get exec
 end}_d

/BuildChar {
 1 index /Encoding get exch get
 1 index /BuildGlyph get exec
}_d

FontName currentdict end definefont pop
end
%%EndProlog
mpldict begin
-126 252 translate
864 288 0 0 clipbox
gsave
0 0 m
864 0 l
864 288 l
0 288 l
cl
1.000 setgray
fill
grestore
gsave
108 36 m
412.363636 36 l
412.363636 253.44 l
108 253.44 l
cl
1.000 setgray
fill
grestore
0.800 setlinewidth
1 setlinejoin
0 setlinecap
[] 0 setdash
0.000 setgray
gsave
/o {
gsave
newpath
translate
0.8 setlinewidth
1 setlinejoin
0 setlinecap
0 0 m
0 -3.5 l

gsave
0.000 setgray
fill
grestore
stroke
grestore
} bind def
108 36 o
grestore
/DejaVuSans findfont
10.000 scalefont
setfont
gsave
100.632812 21.406250 translate
0.000000 rotate
0.000000 0.000000 m /minus glyphshow
8.378906 0.000000 m /four glyphshow
grestore
gsave
/o {
gsave
newpath
translate
0.8 setlinewidth
1 setlinejoin
0 setlinecap
0 0 m
0 -3.5 l

gsave
0.000 setgray
fill
grestore
stroke
grestore
} bind def
146.045 36 o
grestore
gsave
138.678267 21.406250 translate
0.000000 rotate
0.000000 0.000000 m /minus glyphshow
8.378906 0.000000 m /three glyphshow
grestore
gsave
/o {
gsave
newpath
translate
0.8 setlinewidth
1 setlinejoin
0 setlinecap
0 0 m
0 -3.5 l

gsave
0.000 setgray
fill
grestore
stroke
grestore
} bind def
184.091 36 o
grestore
gsave
176.723722 21.406250 translate
0.000000 rotate
0.000000 0.000000 m /minus glyphshow
8.378906 0.000000 m /two glyphshow
grestore
gsave
/o {
gsave
newpath
translate
0.8 setlinewidth
1 setlinejoin
0 setlinecap
0 0 m
0 -3.5 l

gsave
0.000 setgray
fill
grestore
stroke
grestore
} bind def
222.136 36 o
grestore
gsave
214.769176 21.406250 translate
0.000000 rotate
0.000000 0.000000 m /minus glyphshow
8.378906 0.000000 m /one glyphshow
grestore
gsave
/o {
gsave
newpath
translate
0.8 setlinewidth
1 setlinejoin
0 setlinecap
0 0 m
0 -3.5 l

gsave
0.000 setgray
fill
grestore
stroke
grestore
} bind def
260.182 36 o
grestore
gsave
257.002131 21.406250 translate
0.000000 rotate
0.000000 0.000000 m /zero glyphshow
grestore
gsave
/o {
gsave
newpath
translate
0.8 setlinewidth
1 setlinejoin
0 setlinecap
0 0 m
0 -3.5 l

gsave
0.000 setgray
fill
grestore
stroke
grestore
} bind def
298.227 36 o
grestore
gsave
295.047585 21.406250 translate
0.000000 rotate
0.000000 0.000000 m /one glyphshow
grestore
gsave
/o {
gsave
newpath
translate
0.8 setlinewidth
1 setlinejoin
0 setlinecap
0 0 m
0 -3.5 l

gsave
0.000 setgray
fill
grestore
stroke
grestore
} bind def
336.273 36 o
grestore
gsave
333.093040 21.406250 translate
0.000000 rotate
0.000000 0.000000 m /two glyphshow
grestore
gsave
/o {
gsave
newpath
translate
0.8 setlinewidth
1 setlinejoin
0 setlinecap
0 0 m
0 -3.5 l

gsave
0.000 setgray
fill
grestore
stroke
grestore
} bind def
374.318 36 o
grestore
gsave
371.138494 21.406250 translate
0.000000 rotate
0.000000 0.000000 m /three glyphshow
grestore
gsave
/o {
gsave
newpath
translate
0.8 setlinewidth
1 setlinejoin
0 setlinecap
0 0 m
0 -3.5 l

gsave
0.000 setgray
fill
grestore
stroke
grestore
} bind def
412.364 36 o
grestore
gsave
409.183949 21.406250 translate
0.000000 rotate
0.000000 0.000000 m /four glyphshow
grestore
gsave
239.595881 7.734375 translate
0.000000 rotate
0.000000 0.000000 m /L glyphshow
5.571289 0.000000 m /a glyphshow
11.699219 0.000000 m /t glyphshow
15.620117 0.000000 m /i glyphshow
18.398438 0.000000 m /t glyphshow
22.319336 0.000000 m /u glyphshow
28.657227 0.000000 m /d glyphshow
35.004883 0.000000 m /e glyphshow
grestore
gsave
/o {
gsave
newpath
translate
0.8 setlinewidth
1 setlinejoin
0 setlinecap
0 0 m
-3.5 0 l

gsave
0.000 setgray
fill
grestore
stroke
grestore
} bind def
108 63.2432 o
grestore
gsave
76.718750 59.446317 translate
0.000000 rotate
0.000000 0.000000 m /minus glyphshow
8.378906 0.000000 m /one glyphshow
14.741211 0.000000 m /period glyphshow
17.919922 0.000000 m /zero glyphshow
grestore
gsave
/o {
gsave
newpath
translate
0.8 setlinewidth
1 setlinejoin
0 setlinecap
0 0 m
-3.5 0 l

gsave
0.000 setgray
fill
grestore
stroke
grestore
} bind def
108 103.982 o
grestore
gsave
76.718750 100.184721 translate
0.000000 rotate
0.000000 0.000000 m /minus glyphshow
8.378906 0.000000 m /zero glyphshow
14.741211 0.000000 m /period glyphshow
17.919922 0.000000 m /five glyphshow
grestore
gsave
/o {
gsave
newpath
translate
0.8 setlinewidth
1 setlinejoin
0 setlinecap
0 0 m
-3.5 0 l

gsave
0.000 setgray
fill
grestore
stroke
grestore
} bind def
108 144.72 o
grestore
gsave
85.093750 140.923125 translate
0.000000 rotate
0.000000 0.000000 m /zero glyphshow
6.362305 0.000000 m /period glyphshow
9.541016 0.000000 m /zero glyphshow
grestore
gsave
/o {
gsave
newpath
translate
0.8 setlinewidth
1 setlinejoin
0 setlinecap
0 0 m
-3.5 0 l

gsave
0.000 setgray
fill
grestore
stroke
grestore
} bind def
108 185.458 o
grestore
gsave
85.093750 181.661529 translate
0.000000 rotate
0.000000 0.000000 m /zero glyphshow
6.362305 0.000000 m /period glyphshow
9.541016 0.000000 m /five glyphshow
grestore
gsave
/o {
gsave
newpath
translate
0.8 setlinewidth
1 setlinejoin
0 setlinecap
0 0 m
-3.5 0 l

gsave
0.000 setgray
fill
grestore
stroke
grestore
} bind def
108 226.197 o
grestore
gsave
85.093750 222.399933 translate
0.000000 rotate
0.000000 0.000000 m /one glyphshow
6.362305 0.000000 m /period glyphshow
9.541016 0.000000 m /zero glyphshow
grestore
gsave
70.640625 97.024687 translate
90.000000 rotate
0.000000 0.000000 m /M glyphshow
8.627930 0.000000 m /e glyphshow
14.780273 0.000000 m /r glyphshow
18.891602 0.000000 m /i glyphshow
21.669922 0.000000 m /d glyphshow
28.017578 0.000000 m /i glyphshow
30.795898 0.000000 m /o glyphshow
36.914062 0.000000 m /n glyphshow
43.251953 0.000000 m /a glyphshow
49.379883 0.000000 m /l glyphshow
52.158203 0.000000 m /space glyphshow
55.336914 0.000000 m /V glyphshow
62.177734 0.000000 m /e glyphshow
68.330078 0.000000 m /l glyphshow
71.108398 0.000000 m /o glyphshow
77.226562 0.000000 m /c glyphshow
82.724609 0.000000 m /i glyphshow
85.502930 0.000000 m /t glyphshow
89.423828 0.000000 m /y glyphshow
grestore
1.500 setlinewidth
2 setlinecap
0.122 0.467 0.706 setrgbcolor
gsave
304.4 217.4 108 36 clipbox
108 144.747332 m
111.804545 144.760572 l
115.609091 144.779625 l
119.413636 144.806754 l
123.218182 144.84497 l
127.022727 144.89823 l
130.827273 144.971659 l
134.631818 145.071804 l
138.436364 145.206907 l
142.240909 145.387189 l
146.045455 145.625126 l
149.85 145.935698 l
153.654545 146.336589 l
157.459091 146.848289 l
161.263636 147.494078 l
165.068182 148.299841 l
168.872727 149.293681 l
172.677273 150.50529 l
176.481818 151.96505 l
180.286364 153.702861 l
184.090909 155.746687 l
187.895455 158.120854 l
191.7 160.844154 l
195.504545 163.927838 l
199.309091 167.373592 l
203.113636 171.171647 l
206.918182 175.29915 l
210.722727 179.718962 l
214.527273 184.37902 l
218.331818 189.212401 l
222.136364 194.138182 l
225.940909 199.063141 l
229.745455 203.884305 l
233.55 208.492267 l
237.354545 212.77515 l
241.159091 216.62303 l
244.963636 219.932573 l
248.768182 222.611623 l
252.572727 224.583459 l
256.377273 225.79044 l
260.181818 226.196808 l
263.986364 225.79044 l
267.790909 224.583459 l
271.595455 222.611623 l
275.4 219.932573 l
279.204545 216.62303 l
283.009091 212.77515 l
286.813636 208.492267 l
290.618182 203.884305 l
294.422727 199.063141 l
298.227273 194.138182 l
302.031818 189.212401 l
305.836364 184.37902 l
309.640909 179.718962 l
313.445455 175.29915 l
317.25 171.171647 l
321.054545 167.373592 l
324.859091 163.927838 l
328.663636 160.844154 l
332.468182 158.120854 l
336.272727 155.746687 l
340.077273 153.702861 l
343.881818 151.96505 l
347.686364 150.50529 l
351.490909 149.293681 l
355.295455 148.299841 l
359.1 147.494078 l
362.904545 146.848289 l
366.709091 146.336589 l
370.513636 145.935698 l
374.318182 145.625126 l
378.122727 145.387189 l
381.927273 145.206907 l
385.731818 145.071804 l
389.536364 144.971659 l
393.340909 144.89823 l
397.145455 144.84497 l
400.95 144.806754 l
404.754545 144.779625 l
408.559091 144.760572 l
412.363636 144.747332 l
stroke
grestore
1.000 0.498 0.055 setrgbcolor
gsave
304.4 217.4 108 36 clipbox
108 144.501341 m
111.804545 144.40354 l
115.609091 144.266851 l
119.413636 144.078022 l
123.218182 143.820216 l
127.022727 143.472391 l
130.827273 143.008721 l
134.631818 142.398095 l
138.436364 141.603793 l
142.240909 140.583427 l
146.045455 139.289247 l
149.85 137.668952 l
153.654545 135.667101 l
157.459091 133.227239 l
161.263636 130.294795 l
165.068182 126.820795 l
168.872727 122.76633 l
172.677273 118.107668 l
176.481818 112.841782 l
180.286364 106.991985 l
184.090909 100.613253 l
187.895455 93.796756 l
191.7 86.673045 l
195.504545 79.413352 l
199.309091 72.228507 l
203.113636 65.36506 l
206.918182 59.09838 l
210.722727 53.722698 l
214.527273 49.538352 l
218.331818 46.836718 l
222.136364 45.883636 l
225.940909 46.902346 l
229.745455 50.057111 l
233.55 55.438826 l
237.354545 63.05382 l
241.159091 72.81697 l
244.963636 84.549942 l
248.768182 97.985026 l
252.572727 112.774617 l
256.377273 128.505912 l
260.181818 144.72 l
263.986364 160.934088 l
267.790909 176.665383 l
271.595455 191.454974 l
275.4 204.890058 l
279.204545 216.62303 l
283.009091 226.38618 l
286.813636 234.001174 l
290.618182 239.382889 l
294.422727 242.537654 l
298.227273 243.556364 l
302.031818 242.603282 l
305.836364 239.901648 l
309.640909 235.717302 l
313.445455 230.34162 l
317.25 224.07494 l
321.054545 217.211493 l
324.859091 210.026648 l
328.663636 202.766955 l
332.468182 195.643244 l
336.272727 188.826747 l
340.077273 182.448015 l
343.881818 176.598218 l
347.686364 171.332332 l
351.490909 166.67367 l
355.295455 162.619205 l
359.1 159.145205 l
362.904545 156.212761 l
366.709091 153.772899 l
370.513636 151.771048 l
374.318182 150.150753 l
378.122727 148.856573 l
381.927273 147.836207 l
385.731818 147.041905 l
389.536364 146.431279 l
393.340909 145.967609 l
397.145455 145.619784 l
400.95 145.361978 l
404.754545 145.173149 l
408.559091 145.03646 l
412.363636 144.938659 l
stroke
grestore
0.173 0.627 0.173 setrgbcolor
gsave
304.4 217.4 108 36 clipbox
108 145.567305 m
111.804545 145.913623 l
115.609091 146.382343 l
119.413636 147.008564 l
123.218182 147.834252 l
127.022727 148.9084 l
130.827273 150.28669 l
134.631818 152.030483 l
138.436364 154.204954 l
142.240909 156.876188 l
146.045455 160.107135 l
149.85 163.952343 l
153.654545 168.451527 l
157.459091 173.622166 l
161.263636 179.451456 l
165.068182 185.888172 l
168.872727 192.835127 l
172.677273 200.143074 l
176.481818 207.60703 l
180.286364 214.965972 l
184.090909 221.906808 l
187.895455 228.07331 l
191.7 233.080365 l
195.504545 236.533464 l
199.309091 238.052797 l
203.113636 237.300763 l
206.918182 234.011118 l
210.722727 228.01753 l
214.527273 219.278957 l
218.331818 207.899209 l
222.136364 194.138182 l
225.940909 178.412748 l
229.745455 161.286005 l
233.55 143.444555 l
237.354545 125.664558 l
241.159091 108.768485 l
244.963636 93.57545 l
248.768182 80.848869 l
252.572727 71.245618 l
256.377273 65.270969 l
260.181818 63.243192 l
263.986364 65.270969 l
267.790909 71.245618 l
271.595455 80.848869 l
275.4 93.57545 l
279.204545 108.768485 l
283.009091 125.664558 l
286.813636 143.444555 l
290.618182 161.286005 l
294.422727 178.412748 l
298.227273 194.138182 l
302.031818 207.899209 l
305.836364 219.278957 l
309.640909 228.01753 l
313.445455 234.011118 l
317.25 237.300763 l
321.054545 238.052797 l
324.859091 236.533464 l
328.663636 233.080365 l
332.468182 228.07331 l
336.272727 221.906808 l
340.077273 214.965972 l
343.881818 207.60703 l
347.686364 200.143074 l
351.490909 192.835127 l
355.295455 185.888172 l
359.1 179.451456 l
362.904545 173.622166 l
366.709091 168.451527 l
370.513636 163.952343 l
374.318182 160.107135 l
378.122727 156.876188 l
381.927273 154.204954 l
385.731818 152.030483 l
389.536364 150.28669 l
393.340909 148.9084 l
397.145455 147.834252 l
400.95 147.008564 l
404.754545 146.382343 l
408.559091 145.913623 l
412.363636 145.567305 l
stroke
grestore
0.800 setlinewidth
0 setlinejoin
[] 0 setdash
0.000 setgray
gsave
108 36 m
108 253.44 l
stroke
grestore
gsave
412.363636 36 m
412.363636 253.44 l
stroke
grestore
gsave
108 36 m
412.363636 36 l
stroke
grestore
gsave
108 253.44 m
412.363636 253.44 l
stroke
grestore
/DejaVuSans findfont
12.000 scalefont
setfont
gsave
185.775568 259.440000 translate
0.000000 rotate
0.000000 0.000000 m /M glyphshow
10.353516 0.000000 m /e glyphshow
17.736328 0.000000 m /r glyphshow
22.669922 0.000000 m /i glyphshow
26.003906 0.000000 m /d glyphshow
33.621094 0.000000 m /i glyphshow
36.955078 0.000000 m /o glyphshow
44.296875 0.000000 m /n glyphshow
51.902344 0.000000 m /a glyphshow
59.255859 0.000000 m /l glyphshow
62.589844 0.000000 m /space glyphshow
66.404297 0.000000 m /w glyphshow
76.218750 0.000000 m /a glyphshow
83.572266 0.000000 m /v glyphshow
90.673828 0.000000 m /e glyphshow
98.056641 0.000000 m /space glyphshow
101.871094 0.000000 m /v glyphshow
108.972656 0.000000 m /e glyphshow
116.355469 0.000000 m /l glyphshow
119.689453 0.000000 m /o glyphshow
127.031250 0.000000 m /c glyphshow
133.628906 0.000000 m /i glyphshow
136.962891 0.000000 m /t glyphshow
141.667969 0.000000 m /y glyphshow
grestore
1.000 setlinewidth
0 setlinecap
0.800 setgray
gsave
352.285511 201.424375 m
405.363636 201.424375 l
406.69697 201.424375 407.363636 202.091042 407.363636 203.424375 c
407.363636 246.44 l
407.363636 247.773333 406.69697 248.44 405.363636 248.44 c
352.285511 248.44 l
350.952178 248.44 350.285511 247.773333 350.285511 246.44 c
350.285511 203.424375 l
350.285511 202.091042 350.952178 201.424375 352.285511 201.424375 c
cl
gsave
1.000 setgray
fill
grestore
stroke
grestore
1.500 setlinewidth
1 setlinejoin
2 setlinecap
[] 0 setdash
0.122 0.467 0.706 setrgbcolor
gsave
354.285511 240.34625 m
374.285511 240.34625 l
stroke
grestore
0.000 setgray
/DejaVuSans findfont
10.000 scalefont
setfont
gsave
382.285511 236.846250 translate
0.000000 rotate
0.000000 0.000000 m /n glyphshow
6.337891 0.000000 m /equal glyphshow
14.716797 0.000000 m /zero glyphshow
grestore
1.000 0.498 0.055 setrgbcolor
gsave
354.285511 225.674375 m
374.285511 225.674375 l
stroke
grestore
0.000 setgray
gsave
382.285511 222.174375 translate
0.000000 rotate
0.000000 0.000000 m /n glyphshow
6.337891 0.000000 m /equal glyphshow
14.716797 0.000000 m /one glyphshow
grestore
0.173 0.627 0.173 setrgbcolor
gsave
354.285511 211.0025 m
374.285511 211.0025 l
stroke
grestore
0.000 setgray
gsave
382.285511 207.502500 translate
0.000000 rotate
0.000000 0.000000 m /n glyphshow
6.337891 0.000000 m /equal glyphshow
14.716797 0.000000 m /two glyphshow
grestore
gsave
473.236364 36 m
777.6 36 l
777.6 253.44 l
473.236364 253.44 l
cl
1.000 setgray
fill
grestore
0.800 setlinewidth
0 setlinecap
gsave
/o {
gsave
newpath
translate
0.8 setlinewidth
1 setlinejoin
0 setlinecap
0 0 m
0 -3.5 l

gsave
0.000 setgray
fill
grestore
stroke
grestore
} bind def
473.236 36 o
grestore
gsave
465.869176 21.406250 translate
0.000000 rotate
0.000000 0.000000 m /minus glyphshow
8.378906 0.000000 m /four glyphshow
grestore
gsave
/o {
gsave
newpath
translate
0.8 setlinewidth
1 setlinejoin
0 setlinecap
0 0 m
0 -3.5 l

gsave
0.000 setgray
fill
grestore
stroke
grestore
} bind def
511.282 36 o
grestore
gsave
503.914631 21.406250 translate
0.000000 rotate
0.000000 0.000000 m /minus glyphshow
8.378906 0.000000 m /three glyphshow
grestore
gsave
/o {
gsave
newpath
translate
0.8 setlinewidth
1 setlinejoin
0 setlinecap
0 0 m
0 -3.5 l

gsave
0.000 setgray
fill
grestore
stroke
grestore
} bind def
549.327 36 o
grestore
gsave
541.960085 21.406250 translate
0.000000 rotate
0.000000 0.000000 m /minus glyphshow
8.378906 0.000000 m /two glyphshow
grestore
gsave
/o {
gsave
newpath
translate
0.8 setlinewidth
1 setlinejoin
0 setlinecap
0 0 m
0 -3.5 l

gsave
0.000 setgray
fill
grestore
stroke
grestore
} bind def
587.373 36 o
grestore
gsave
580.005540 21.406250 translate
0.000000 rotate
0.000000 0.000000 m /minus glyphshow
8.378906 0.000000 m /one glyphshow
grestore
gsave
/o {
gsave
newpath
translate
0.8 setlinewidth
1 setlinejoin
0 setlinecap
0 0 m
0 -3.5 l

gsave
0.000 setgray
fill
grestore
stroke
grestore
} bind def
625.418 36 o
grestore
gsave
622.238494 21.406250 translate
0.000000 rotate
0.000000 0.000000 m /zero glyphshow
grestore
gsave
/o {
gsave
newpath
translate
0.8 setlinewidth
1 setlinejoin
0 setlinecap
0 0 m
0 -3.5 l

gsave
0.000 setgray
fill
grestore
stroke
grestore
} bind def
663.464 36 o
grestore
gsave
660.283949 21.406250 translate
0.000000 rotate
0.000000 0.000000 m /one glyphshow
grestore
gsave
/o {
gsave
newpath
translate
0.8 setlinewidth
1 setlinejoin
0 setlinecap
0 0 m
0 -3.5 l

gsave
0.000 setgray
fill
grestore
stroke
grestore
} bind def
701.509 36 o
grestore
gsave
698.329403 21.406250 translate
0.000000 rotate
0.000000 0.000000 m /two glyphshow
grestore
gsave
/o {
gsave
newpath
translate
0.8 setlinewidth
1 setlinejoin
0 setlinecap
0 0 m
0 -3.5 l

gsave
0.000 setgray
fill
grestore
stroke
grestore
} bind def
739.555 36 o
grestore
gsave
736.374858 21.406250 translate
0.000000 rotate
0.000000 0.000000 m /three glyphshow
grestore
gsave
/o {
gsave
newpath
translate
0.8 setlinewidth
1 setlinejoin
0 setlinecap
0 0 m
0 -3.5 l

gsave
0.000 setgray
fill
grestore
stroke
grestore
} bind def
777.6 36 o
grestore
gsave
774.420312 21.406250 translate
0.000000 rotate
0.000000 0.000000 m /four glyphshow
grestore
gsave
574.418182 3.328125 translate
0.000000 rotate
/DejaVuSans findfont
10.0 scalefont
setfont
0.000000 0.556250 moveto
/W glyphshow

9.887695 0.556250 moveto
/a glyphshow

16.015625 0.556250 moveto
/v glyphshow

21.933594 0.556250 moveto
/e glyphshow

28.085938 0.556250 moveto
/n glyphshow

34.423828 0.556250 moveto
/u glyphshow

40.761719 0.556250 moveto
/m glyphshow

50.502930 0.556250 moveto
/b glyphshow

56.850586 0.556250 moveto
/e glyphshow

63.002930 0.556250 moveto
/r glyphshow

67.114258 0.556250 moveto
/space glyphshow

/DejaVuSans-Oblique findfont
10.0 scalefont
setfont
70.292969 0.556250 moveto
/k glyphshow

/STIXSizeOneSym-Regular findfont
6.9627749577 scalefont
setfont
76.083984 0.540625 moveto
/uni221A glyphshow

83.482971 10.750000 17.749023 0.625000 rectfill
/DejaVuSans-Oblique findfont
10.0 scalefont
setfont
84.732971 0.718750 moveto
/c glyphshow

/DejaVuSans findfont
10.0 scalefont
setfont
90.231018 0.718750 moveto
/slash glyphshow

/DejaVuSans-Oblique findfont
10.0 scalefont
setfont
93.600159 0.718750 moveto
/beta glyphshow


grestore
gsave
/o {
gsave
newpath
translate
0.8 setlinewidth
1 setlinejoin
0 setlinecap
0 0 m
-3.5 0 l

gsave
0.000 setgray
fill
grestore
stroke
grestore
} bind def
473.236 36 o
grestore
gsave
459.876989 32.203125 translate
0.000000 rotate
0.000000 0.000000 m /zero glyphshow
grestore
gsave
/o {
gsave
newpath
translate
0.8 setlinewidth
1 setlinejoin
0 setlinecap
0 0 m
-3.5 0 l

gsave
0.000 setgray
fill
grestore
stroke
grestore
} bind def
473.236 79.488 o
grestore
gsave
459.876989 75.691125 translate
0.000000 rotate
0.000000 0.000000 m /one glyphshow
grestore
gsave
/o {
gsave
newpath
translate
0.8 setlinewidth
1 setlinejoin
0 setlinecap
0 0 m
-3.5 0 l

gsave
0.000 setgray
fill
grestore
stroke
grestore
} bind def
473.236 122.976 o
grestore
gsave
459.876989 119.179125 translate
0.000000 rotate
0.000000 0.000000 m /two glyphshow
grestore
gsave
/o {
gsave
newpath
translate
0.8 setlinewidth
1 setlinejoin
0 setlinecap
0 0 m
-3.5 0 l

gsave
0.000 setgray
fill
grestore
stroke
grestore
} bind def
473.236 166.464 o
grestore
gsave
459.876989 162.667125 translate
0.000000 rotate
0.000000 0.000000 m /three glyphshow
grestore
gsave
/o {
gsave
newpath
translate
0.8 setlinewidth
1 setlinejoin
0 setlinecap
0 0 m
-3.5 0 l

gsave
0.000 setgray
fill
grestore
stroke
grestore
} bind def
473.236 209.952 o
grestore
gsave
459.876989 206.155125 translate
0.000000 rotate
0.000000 0.000000 m /four glyphshow
grestore
gsave
/o {
gsave
newpath
translate
0.8 setlinewidth
1 setlinejoin
0 setlinecap
0 0 m
-3.5 0 l

gsave
0.000 setgray
fill
grestore
stroke
grestore
} bind def
473.236 253.44 o
grestore
gsave
459.876989 249.643125 translate
0.000000 rotate
0.000000 0.000000 m /five glyphshow
grestore
gsave
452.876989 99.720000 translate
90.000000 rotate
/DejaVuSans findfont
10.0 scalefont
setfont
0.000000 0.556250 moveto
/F glyphshow

5.751953 0.556250 moveto
/r glyphshow

9.863281 0.556250 moveto
/e glyphshow

16.015625 0.556250 moveto
/q glyphshow

22.363281 0.556250 moveto
/u glyphshow

28.701172 0.556250 moveto
/e glyphshow

34.853516 0.556250 moveto
/n glyphshow

41.191406 0.556250 moveto
/c glyphshow

46.689453 0.556250 moveto
/y glyphshow

52.607422 0.556250 moveto
/space glyphshow

/DejaVuSans-Oblique findfont
10.0 scalefont
setfont
55.786133 0.556250 moveto
/omega glyphshow

/DejaVuSans findfont
10.0 scalefont
setfont
64.160156 0.556250 moveto
/slash glyphshow

/STIXSizeOneSym-Regular findfont
6.9627749577 scalefont
setfont
67.529297 0.540625 moveto
/uni221A glyphshow

74.928284 10.750000 14.379883 0.625000 rectfill
/DejaVuSans-Oblique findfont
10.0 scalefont
setfont
76.178284 0.718750 moveto
/beta glyphshow

82.560120 0.718750 moveto
/c glyphshow


grestore
1.500 setlinewidth
2 setlinecap
0.122 0.467 0.706 setrgbcolor
gsave
304.4 217.4 473.2 36 clipbox
625.418182 36 m
629.222727 40.3488 l
633.027273 44.6976 l
636.831818 49.0464 l
640.636364 53.3952 l
644.440909 57.744 l
648.245455 62.0928 l
652.05 66.4416 l
655.854545 70.7904 l
659.659091 75.1392 l
663.463636 79.488 l
667.268182 83.8368 l
671.072727 88.1856 l
674.877273 92.5344 l
678.681818 96.8832 l
682.486364 101.232 l
686.290909 105.5808 l
690.095455 109.9296 l
693.9 114.2784 l
697.704545 118.6272 l
701.509091 122.976 l
705.313636 127.3248 l
709.118182 131.6736 l
712.922727 136.0224 l
716.727273 140.3712 l
720.531818 144.72 l
724.336364 149.0688 l
728.140909 153.4176 l
731.945455 157.7664 l
735.75 162.1152 l
739.554545 166.464 l
743.359091 170.8128 l
747.163636 175.1616 l
750.968182 179.5104 l
754.772727 183.8592 l
758.577273 188.208 l
762.381818 192.5568 l
766.186364 196.9056 l
769.990909 201.2544 l
773.795455 205.6032 l
777.6 209.952 l
stroke
grestore
1.000 0.498 0.055 setrgbcolor
gsave
304.4 217.4 473.2 36 clipbox
473.236364 225.559797 m
477.040909 221.57711 l
480.845455 217.61122 l
484.65 213.66325 l
488.454545 209.734424 l
492.259091 205.826069 l
496.063636 201.939632 l
499.868182 198.07669 l
503.672727 194.238963 l
507.477273 190.428331 l
511.281818 186.646851 l
515.086364 182.896774 l
518.890909 179.180566 l
522.695455 175.500936 l
526.5 171.860855 l
530.304545 168.263588 l
534.109091 164.712726 l
537.913636 161.212216 l
541.718182 157.7664 l
545.522727 154.380055 l
549.327273 151.058433 l
553.131818 147.807301 l
556.936364 144.632989 l
560.740909 141.542428 l
564.545455 138.543192 l
568.35 135.643526 l
572.154545 132.852375 l
575.959091 130.179386 l
579.763636 127.634902 l
583.568182 125.229916 l
587.372727 122.976 l
591.177273 120.88519 l
594.981818 118.969816 l
598.786364 117.242289 l
602.590909 115.714821 l
606.395455 114.399107 l
610.2 113.30596 l
614.004545 112.444928 l
617.809091 111.823919 l
621.613636 111.44886 l
625.418182 111.323426 l
629.222727 111.44886 l
633.027273 111.823919 l
636.831818 112.444928 l
640.636364 113.30596 l
644.440909 114.399107 l
648.245455 115.714821 l
652.05 117.242289 l
655.854545 118.969816 l
659.659091 120.88519 l
663.463636 122.976 l
667.268182 125.229916 l
671.072727 127.634902 l
674.877273 130.179386 l
678.681818 132.852375 l
682.486364 135.643526 l
686.290909 138.543192 l
690.095455 141.542428 l
693.9 144.632989 l
697.704545 147.807301 l
701.509091 151.058433 l
705.313636 154.380055 l
709.118182 157.7664 l
712.922727 161.212216 l
716.727273 164.712726 l
720.531818 168.263588 l
724.336364 171.860855 l
728.140909 175.500936 l
731.945455 179.180566 l
735.75 182.896774 l
739.554545 186.646851 l
743.359091 190.428331 l
747.163636 194.238963 l
750.968182 198.07669 l
754.772727 201.939632 l
758.577273 205.826069 l
762.381818 209.734424 l
766.186364 213.66325 l
769.990909 217.61122 l
773.795455 221.57711 l
777.6 225.559797 l
stroke
grestore
0.173 0.627 0.173 setrgbcolor
gsave
304.4 217.4 473.2 36 clipbox
473.236364 235.287052 m
477.040909 231.502624 l
480.845455 227.742138 l
484.65 224.007029 l
488.454545 220.29884 l
492.259091 216.619229 l
496.063636 212.96998 l
499.868182 209.353009 l
503.672727 205.770379 l
507.477273 202.224312 l
511.281818 198.717196 l
515.086364 195.251607 l
518.890909 191.830314 l
522.695455 188.4563 l
526.5 185.132774 l
530.304545 181.863186 l
534.109091 178.651246 l
537.913636 175.500936 l
541.718182 172.416526 l
545.522727 169.402585 l
549.327273 166.464 l
553.131818 163.605975 l
556.936364 160.834044 l
560.740909 158.154069 l
564.545455 155.572231 l
568.35 153.095024 l
572.154545 150.729224 l
575.959091 148.481861 l
579.763636 146.360172 l
583.568182 144.371538 l
587.372727 142.52341 l
591.177273 140.823221 l
594.981818 139.278278 l
598.786364 137.895641 l
602.590909 136.681999 l
606.395455 135.643526 l
610.2 134.785746 l
614.004545 134.1134 l
617.809091 133.630318 l
621.613636 133.339318 l
625.418182 133.242124 l
629.222727 133.339318 l
633.027273 133.630318 l
636.831818 134.1134 l
640.636364 134.785746 l
644.440909 135.643526 l
648.245455 136.681999 l
652.05 137.895641 l
655.854545 139.278278 l
659.659091 140.823221 l
663.463636 142.52341 l
667.268182 144.371538 l
671.072727 146.360172 l
674.877273 148.481861 l
678.681818 150.729224 l
682.486364 153.095024 l
686.290909 155.572231 l
690.095455 158.154069 l
693.9 160.834044 l
697.704545 163.605975 l
701.509091 166.464 l
705.313636 169.402585 l
709.118182 172.416526 l
712.922727 175.500936 l
716.727273 178.651246 l
720.531818 181.863186 l
724.336364 185.132774 l
728.140909 188.4563 l
731.945455 191.830314 l
735.75 195.251607 l
739.554545 198.717196 l
743.359091 202.224312 l
747.163636 205.770379 l
750.968182 209.353009 l
754.772727 212.96998 l
758.577273 216.619229 l
762.381818 220.29884 l
766.186364 224.007029 l
769.990909 227.742138 l
773.795455 231.502624 l
777.6 235.287052 l
stroke
grestore
0.839 0.153 0.157 setrgbcolor
gsave
304.4 217.4 473.2 36 clipbox
473.236364 46.266124 m
477.040909 46.500643 l
480.845455 46.745496 l
484.65 47.001337 l
488.454545 47.268873 l
492.259091 47.548866 l
496.063636 47.842143 l
499.868182 48.149596 l
503.672727 48.472194 l
507.477273 48.810985 l
511.281818 49.167107 l
515.086364 49.541793 l
518.890909 49.936384 l
522.695455 50.352334 l
526.5 50.791223 l
530.304545 51.254767 l
534.109091 51.744828 l
537.913636 52.263428 l
541.718182 52.81276 l
545.522727 53.3952 l
549.327273 54.013319 l
553.131818 54.669895 l
556.936364 55.36792 l
560.740909 56.110611 l
564.545455 56.901413 l
568.35 57.744 l
572.154545 58.642269 l
575.959091 59.600331 l
579.763636 60.622487 l
583.568182 61.713203 l
587.372727 62.877062 l
591.177273 64.118715 l
594.981818 65.442809 l
598.786364 66.85391 l
602.590909 68.356405 l
606.395455 69.954404 l
610.2 71.651632 l
614.004545 73.451319 l
617.809091 75.356099 l
621.613636 77.367926 l
625.418182 79.488 l
629.222727 81.716726 l
633.027273 84.053699 l
636.831818 86.497719 l
640.636364 89.046832 l
644.440909 91.698404 l
648.245455 94.449205 l
652.05 97.29551 l
655.854545 100.233209 l
659.659091 103.257915 l
663.463636 106.365062 l
667.268182 109.550003 l
671.072727 112.808087 l
674.877273 116.134731 l
678.681818 119.525469 l
682.486364 122.976 l
686.290909 126.482213 l
690.095455 130.040211 l
693.9 133.64632 l
697.704545 137.297095 l
701.509091 140.989319 l
705.313636 144.72 l
709.118182 148.48636 l
712.922727 152.285828 l
716.727273 156.116028 l
720.531818 159.974767 l
724.336364 163.860023 l
728.140909 167.769934 l
731.945455 171.702784 l
735.75 175.656993 l
739.554545 179.631107 l
743.359091 183.623785 l
747.163636 187.633794 l
750.968182 191.659996 l
754.772727 195.701343 l
758.577273 199.756866 l
762.381818 203.825673 l
766.186364 207.906937 l
769.990909 211.999896 l
773.795455 216.103843 l
777.6 220.218124 l
stroke
grestore
0.580 0.404 0.741 setrgbcolor
gsave
304.4 217.4 473.2 36 clipbox
473.236364 45.155368 m
477.040909 45.31374 l
480.845455 45.475596 l
484.65 45.640839 l
488.454545 45.809323 l
492.259091 45.980852 l
496.063636 46.155165 l
499.868182 46.331922 l
503.672727 46.510695 l
507.477273 46.690944 l
511.281818 46.872 l
515.086364 47.053041 l
518.890909 47.233063 l
522.695455 47.410845 l
526.5 47.584918 l
530.304545 47.753514 l
534.109091 47.914521 l
537.913636 48.065428 l
541.718182 48.203265 l
545.522727 48.324534 l
549.327273 48.425143 l
553.131818 48.500333 l
556.936364 48.544615 l
560.740909 48.551715 l
564.545455 48.514532 l
568.35 48.425143 l
572.154545 48.274839 l
575.959091 48.054243 l
579.763636 47.753514 l
583.568182 47.36266 l
587.372727 46.872 l
591.177273 46.272756 l
594.981818 45.557802 l
598.786364 44.722521 l
602.590909 43.765714 l
606.395455 42.690462 l
610.2 41.50481 l
614.004545 40.222136 l
617.809091 38.861053 l
621.613636 37.444784 l
625.418182 36 l
stroke
grestore
0.549 0.337 0.294 setrgbcolor
gsave
304.4 217.4 473.2 36 clipbox
473.236364 44.283429 m
477.040909 44.392044 l
480.845455 44.500741 l
484.65 44.609181 l
488.454545 44.716971 l
492.259091 44.823652 l
496.063636 44.928696 l
499.868182 45.031492 l
503.672727 45.131339 l
507.477273 45.227433 l
511.281818 45.318857 l
515.086364 45.404564 l
518.890909 45.483364 l
522.695455 45.553914 l
526.5 45.614694 l
530.304545 45.664 l
534.109091 45.699926 l
537.913636 45.72035 l
541.718182 45.722927 l
545.522727 45.70508 l
549.327273 45.664 l
553.131818 45.596655 l
556.936364 45.499806 l
560.740909 45.370038 l
564.545455 45.20381 l
568.35 44.997517 l
572.154545 44.747586 l
575.959091 44.450583 l
579.763636 44.103354 l
583.568182 43.703188 l
587.372727 43.248 l
591.177273 42.736523 l
594.981818 42.168511 l
598.786364 41.544918 l
602.590909 40.86806 l
606.395455 40.141714 l
610.2 39.371163 l
614.004545 38.563143 l
617.809091 37.725714 l
621.613636 36.868024 l
625.418182 36 l
stroke
grestore
0 setlinecap
[5.55 2.4] 0 setdash
0.000 setgray
gsave
304.4 217.4 473.2 36 clipbox
625.418182 -1 m
625.418182 253.44 l
stroke
grestore
0.800 setlinewidth
0 setlinejoin
2 setlinecap
[] 0 setdash
gsave
473.236364 36 m
473.236364 253.44 l
stroke
grestore
gsave
777.6 36 m
777.6 253.44 l
stroke
grestore
gsave
473.236364 36 m
777.6 36 l
stroke
grestore
gsave
473.236364 253.44 m
777.6 253.44 l
stroke
grestore
/DejaVuSans findfont
12.000 scalefont
setfont
gsave
524.293182 259.440000 translate
0.000000 rotate
0.000000 0.000000 m /D glyphshow
9.240234 0.000000 m /i glyphshow
12.574219 0.000000 m /s glyphshow
18.826172 0.000000 m /p glyphshow
26.443359 0.000000 m /e glyphshow
33.826172 0.000000 m /r glyphshow
38.759766 0.000000 m /i glyphshow
42.093750 0.000000 m /s glyphshow
48.345703 0.000000 m /o glyphshow
55.687500 0.000000 m /n glyphshow
63.292969 0.000000 m /space glyphshow
67.107422 0.000000 m /r glyphshow
72.041016 0.000000 m /e glyphshow
79.423828 0.000000 m /l glyphshow
82.757812 0.000000 m /a glyphshow
90.111328 0.000000 m /t glyphshow
94.816406 0.000000 m /i glyphshow
98.150391 0.000000 m /o glyphshow
105.492188 0.000000 m /n glyphshow
113.097656 0.000000 m /s glyphshow
119.349609 0.000000 m /space glyphshow
123.164062 0.000000 m /f glyphshow
127.388672 0.000000 m /o glyphshow
134.730469 0.000000 m /r glyphshow
139.664062 0.000000 m /space glyphshow
143.478516 0.000000 m /E glyphshow
151.060547 0.000000 m /Q glyphshow
160.505859 0.000000 m /space glyphshow
164.320312 0.000000 m /w glyphshow
174.134766 0.000000 m /a glyphshow
181.488281 0.000000 m /v glyphshow
188.589844 0.000000 m /e glyphshow
195.972656 0.000000 m /s glyphshow
grestore
1.000 setlinewidth
0 setlinecap
0.800 setgray
gsave
574.105682 172.080625 m
676.730682 172.080625 l
678.064015 172.080625 678.730682 172.747292 678.730682 174.080625 c
678.730682 246.44 l
678.730682 247.773333 678.064015 248.44 676.730682 248.44 c
574.105682 248.44 l
572.772348 248.44 572.105682 247.773333 572.105682 246.44 c
572.105682 174.080625 l
572.105682 172.747292 572.772348 172.080625 574.105682 172.080625 c
cl
gsave
1.000 setgray
fill
grestore
stroke
grestore
1.500 setlinewidth
1 setlinejoin
2 setlinecap
[] 0 setdash
1.000 0.498 0.055 setrgbcolor
gsave
576.105682 240.34625 m
596.105682 240.34625 l
stroke
grestore
0.000 setgray
/DejaVuSans findfont
10.000 scalefont
setfont
gsave
604.105682 236.846250 translate
0.000000 rotate
0.000000 0.000000 m /P glyphshow
6.030273 0.000000 m /o glyphshow
12.148438 0.000000 m /i glyphshow
14.926758 0.000000 m /n glyphshow
21.264648 0.000000 m /c glyphshow
26.762695 0.000000 m /a glyphshow
32.890625 0.000000 m /r glyphshow
37.001953 0.000000 m /e glyphshow
43.154297 0.000000 m /comma glyphshow
46.333008 0.000000 m /space glyphshow
49.511719 0.000000 m /n glyphshow
55.849609 0.000000 m /equal glyphshow
64.228516 0.000000 m /one glyphshow
grestore
0.173 0.627 0.173 setrgbcolor
gsave
576.105682 225.674375 m
596.105682 225.674375 l
stroke
grestore
0.000 setgray
gsave
604.105682 222.174375 translate
0.000000 rotate
0.000000 0.000000 m /P glyphshow
6.030273 0.000000 m /o glyphshow
12.148438 0.000000 m /i glyphshow
14.926758 0.000000 m /n glyphshow
21.264648 0.000000 m /c glyphshow
26.762695 0.000000 m /a glyphshow
32.890625 0.000000 m /r glyphshow
37.001953 0.000000 m /e glyphshow
43.154297 0.000000 m /comma glyphshow
46.333008 0.000000 m /space glyphshow
49.511719 0.000000 m /n glyphshow
55.849609 0.000000 m /equal glyphshow
64.228516 0.000000 m /two glyphshow
grestore
0.839 0.153 0.157 setrgbcolor
gsave
576.105682 211.0025 m
596.105682 211.0025 l
stroke
grestore
0.000 setgray
gsave
604.105682 207.502500 translate
0.000000 rotate
0.000000 0.000000 m /Y glyphshow
6.092773 0.000000 m /a glyphshow
12.220703 0.000000 m /n glyphshow
18.558594 0.000000 m /a glyphshow
24.686523 0.000000 m /i glyphshow
27.464844 0.000000 m /comma glyphshow
30.643555 0.000000 m /space glyphshow
33.822266 0.000000 m /n glyphshow
40.160156 0.000000 m /equal glyphshow
48.539062 0.000000 m /zero glyphshow
grestore
0.580 0.404 0.741 setrgbcolor
gsave
576.105682 196.330625 m
596.105682 196.330625 l
stroke
grestore
0.000 setgray
gsave
604.105682 192.830625 translate
0.000000 rotate
0.000000 0.000000 m /R glyphshow
6.948242 0.000000 m /o glyphshow
13.066406 0.000000 m /s glyphshow
18.276367 0.000000 m /s glyphshow
23.486328 0.000000 m /b glyphshow
29.833984 0.000000 m /y glyphshow
35.751953 0.000000 m /comma glyphshow
38.930664 0.000000 m /space glyphshow
42.109375 0.000000 m /n glyphshow
48.447266 0.000000 m /equal glyphshow
56.826172 0.000000 m /one glyphshow
grestore
0.549 0.337 0.294 setrgbcolor
gsave
576.105682 181.65875 m
596.105682 181.65875 l
stroke
grestore
0.000 setgray
gsave
604.105682 178.158750 translate
0.000000 rotate
0.000000 0.000000 m /R glyphshow
6.948242 0.000000 m /o glyphshow
13.066406 0.000000 m /s glyphshow
18.276367 0.000000 m /s glyphshow
23.486328 0.000000 m /b glyphshow
29.833984 0.000000 m /y glyphshow
35.751953 0.000000 m /comma glyphshow
38.930664 0.000000 m /space glyphshow
42.109375 0.000000 m /n glyphshow
48.447266 0.000000 m /equal glyphshow
56.826172 0.000000 m /two glyphshow
grestore

end
showpage
